1 10 20
100 200 125
201 210 89
900 1000 174
288 4453 238
3859 4640 215
3176 4505 238
1934 8564 262
268 631 144
561 3980 238
3501 3949 238
132 7030 262
4482 8653 262
2889 9964 262
1865 4721 238
1656 3897 238
1631 3617 217
2940 4091 238
2943 7773 262
916 2617 209
1890 6291 262
386 7285 262
6176 9112 257
288 2692 209
6086 6636 262
3059 3586 199
879 9692 262
2243 7852 262
2637 7363 262
391 2960 217
3519 5239 238
1884 7389 262
2395 3914 238
2950 3542 199
7377 8850 252
1336 2651 209
6936 9803 260
5154 9389 262
781 7019 262
1359 9965 262
6541 6848 244
1300 8973 262
3003 8430 262
4676 8356 262
258 6807 262
5892 5946 187
1537 6767 262
1426 8550 262
4380 9827 262
1383 3811 238
5836 7737 262
5346 7870 262
6045 9329 262
1544 5234 238
7088 8133 252
2683 9678 262
1519 6647 262
3234 7461 262
5026 9052 262
1179 8406 262
5684 8437 262
864 5603 238
2214 8894 262
4133 4725 215
4447 9031 262
5781 8557 262
1596 7138 262
3133 5290 238
2682 9610 262
7553 8748 252
1344 9648 262
906 6736 262
1602 8386 262
1359 9965 262
6541 6848 244
1300 8973 262
3003 8430 262
4676 8356 262
258 6807 262
5892 5946 187
1537 6767 262
1426 8550 262
4380 9827 262
1383 3811 238
5836 7737 262
5346 7870 262
6045 9329 262
1544 5234 238
7088 8133 252
2683 9678 262
1519 6647 262
3234 7461 262
5026 9052 262
1179 8406 262
5684 8437 262
864 5603 238
2214 8894 262
4133 4725 215
4447 9031 262
5781 8557 262
1596 7138 262
3133 5290 238
2682 9610 262
7553 8748 252
1344 9648 262
906 6736 262
1602 8386 262
7131 7839 239
3406 4746 238
4069 7001 262
456 6043 238
3510 9999 262
968 1789 182
2441 3013 217
7211 8900 252
1205 2466 209
855 6035 238
3605 9807 262
306 3159 217
2960 3110 186
3213 5728 238
1024 4630 238
4108 9796 262
5900 8830 262
1135 7860 262
1276 5328 238
6430 8175 257
3477 5744 238
1919 3003 217
3087 5800 238
4553 5181 210
422 9394 262
2355 3354 217
3723 4366 202
2047 2367 183
1521 5532 238
2752 9204 262
826 2481 209
659 2855 209
3350 5313 238
5346 8022 262
5097 6887 262
2785 8342 262
4126 6178 262
2066 3686 217
1692 9874 262
2777 8651 262
5306 7869 262
2678 5657 238
4392 4658 184
964 7223 262
2401 7082 262
5566 5873 236
2692 5713 238
2566 7518 262
2563 8451 262
6956 7569 239
8842 9681 260
485 1750 182
7857 8043 252
899 6721 262
1432 8105 262
2943 7307 262
480 8819 262
4474 7036 262
6065 9461 262
5192 9394 262
4204 7513 262
188 340 144
374 5336 238
457 5670 238
775 819 153
223 404 144
6955 8855 252
5528 7778 262
96 8186 262
2256 7308 262
634 6099 238
6981 8218 252
2605 9053 262
5637 8183 262
4438 5442 210
6038 8511 262
5536 9583 262
1 999999 525
